19736,104571,99637,6416,6081,7074,7074,6564,8674
17952,101862,110621,5007,6295,8111,6442,6571,7244
15401,84346,84065,5588,5275,6529,5468,4779,6722
15545,85748,84844,5313,5411,6528,5452,5339,6694
15231,84323,98942,8324,7934,9659,8391,7317,9537
22057,106374,83137,5278,5102,6242,5439,4720,6859
15331,119395,95725,6093,7343,6166,5776,5348,6795
16076,98444,98898,6409,7064,6598,6892,6101,7812
22454,149471,116336,7891,27044,9010,19369,7625,23646
20201,112853,101550,7920,7395,9569,8233,7020,9581
21929,111223,91174,7826,7244,9253,7935,7276,9473
22568,100525,101678,6680,6001,7247,7192,5143,7730
15631,84468,82862,4992,4777,6457,5723,5411,7210
20847,126708,114924,8333,7398,9496,8109,7378,9578
23342,114251,110791,8035,7507,9382,8022,7306,9404
22965,125225,113778,8522,7667,9173,8125,7459,9416
18276,106660,91071,5275,5428,6511,5468,5375,7125
20263,101528,98736,6098,6427,8030,6850,6343,7723
15765,85456,111241,8842,7436,9125,14774,6370,8083
15883,85306,83651,5299,5370,6212,6054,4838,6658
16451,86759,84460,4973,5403,6501,5753,4832,6832
22095,104704,99878,6269,7183,8443,6822,6483,9109
20267,86714,95048,6847,6408,7975,6034,5435,7218
14923,91886,96532,5224,5906,6473,7603,6212,7635
15134,84354,82845,5001,5100,6189,5451,5002,7116
15930,84519,103750,5023,5186,5919,5460,5062,6777
16026,84440,82843,5003,5092,5898,5747,4765,6900
19116,95959,97226,5861,6522,5923,7702,5938,8003
15200,88801,92162,4987,5131,6517,5766,5309,6827
17290,85178,83616,5326,5369,6483,5462,4727,7329
16560,96897,107995,5037,4894,7651,6986,5497,6683
22758,144289,139344,8447,7606,9045,8325,7312,9547
18744,98293,98338,8042,7104,9108,8214,7208,9474
22406,112306,112063,8173,7842,9502,19478,7811,10232
23076,109523,111847,7871,7719,9313,8270,6900,9161
32182,153775,160966,8686,7642,9613,8659,7712,9894
24154,120926,121394,8202,8082,10022,8925,7892,10437
25716,122359,113178,9281,8451,10597,9568,8481,10788
18397,170605,112333,6944,7572,9133,6260,7190,10448
16258,92536,90964,5792,5955,6834,6283,5235,7385
16132,90829,88128,5277,5718,6906,5804,5029,7083
17017,92762,100774,7259,7577,9321,7251,7320,9483
16729,87980,86104,5458,5524,40132,6409,6550,8747
22883,151598,131811,7715,6924,7231,5948,5208,7718
16086,85788,83487,5012,5426,6454,6037,5372,6578
19435,144302,109844,5114,5102,6488,5486,4856,7030
16666,85171,91418,4992,6038,7251,6473,6350,8854
15093,85807,84856,4980,5118,6475,6045,5383,6843
15556,99122,98105,7003,6045,7676,6589,6283,8025
18221,97251,96896,5331,5461,6500,6045,5075,7165
18208,100671,102865,9474,7065,8303,6379,6418,8732
17044,116271,84707,5278,6965,8122,7185,5614,7887
45820,85121,83637,5041,5387,6513,5472,5440,7226
15594,85151,83376,4984,5175,6526,5466,5329,6819
15209,85344,83574,5307,5394,6273,6058,4800,6897
17023,92372,133940,5307,5407,6407,5734,5369,7055
14847,94118,85240,4993,5400,6499,5459,4728,6753
16520,84367,83209,5012,5433,6435,5470,5291,7157
15245,84491,82792,5294,5351,5938,5448,5359,6857
29486,110453,106498,6584,5724,7789,6676,6075,7853
15877,85724,83498,5067,5403,6463,5450,5099,7175
14568,85458,84589,5276,5417,6604,6057,5320,7170
22868,101772,98377,7300,5835,7657,7038,6015,7664
16956,100519,96166,6016,6419,7775,7566,5885,8918
17556,101343,107607,5698,7544,9023,8111,7150,6885
15967,84912,82930,4951,5103,6574,5742,4779,6722
46242,135978,124214,6175,5328,7009,6517,5918,8427
16151,85141,83723,5873,6673,8413,7929,7112,6989
16929,103260,86154,5306,5447,6297,5759,5401,7188
18358,100224,84458,5404,5580,6095,5567,5005,7459
16077,121864,104934,6449,6455,6931,6643,5979,8457
20111,91213,83289,5008,5080,6513,5772,5481,6660
14902,84782,93517,5934,5390,6521,6196,6369,7758
17365,90712,83498,5322,5077,6145,6046,5319,6697
15431,91483,83495,4984,5423,6493,7570,5844,8813
15418,84349,83704,4970,5399,6498,5489,4763,6550
15236,88449,94688,5358,5095,7085,6714,6015,7585
49810,112282,102834,7095,6007,8094,6603,7016,9036
23128,107349,84418,5028,5426,5888,5769,5366,8835
18066,110244,97828,5070,5060,8234,8334,7548,9790
16470,85045,83422,4993,5401,6524,5754,4726,6679
15616,85196,83444,5011,5407,6514,5462,4777,6857
15476,84958,83505,5000,5417,6008,5460,5057,7146
16740,89830,96471,4978,5102,7909,6451,5319,9096
19849,98489,90613,5360,5124,6506,5743,5327,6780
15621,85044,83347,5283,5367,6200,5594,5524,7140
20193,182545,152058,5004,5241,5884,5464,4807,6855
19851,102431,100104,6001,6387,5922,6819,7148,7628
21852,183124,117208,5344,7185,6048,6153,4895,8761
18607,101399,104388,6787,8391,9175,5900,5893,8557
15437,85739,84915,4976,5106,6532,5442,5317,6716
15449,85142,83580,5387,5371,5880,5727,4809,6774
19381,98916,98635,6631,6514,7347,7065,6102,9023
18834,111833,105693,7295,6260,8371,7965,7163,6965
18264,109061,111877,6047,6039,7087,7611,6175,7946
23044,112563,101878,6921,7093,8031,7721,5514,8028
23055,115812,110122,7333,7286,8934,7749,7029,9013
22401,129582,100057,6667,5919,8150,6867,6872,8717
15980,85171,83537,5599,5411,6532,5480,5377,7116
16435,85939,97261,5314,5456,6500,5467,4783,6706
19245.21,102474.06,97777.4,6087.6,6292.38,7671.16,6877.56,5911.33,8018.02