8543,12605,11363,731,1999,1147,658,1036,1476
12514,13243,11270,1347,1284,1639,1037,886,1183
8326,13036,11105,1874,870,1226,956,780,2275
7036,10849,9191,699,824,1117,653,722,1080
7383,11549,9171,735,818,1129,692,878,1083
6462,10629,9148,731,905,1143,693,758,1171
11293,29104,30922,1222,1273,1640,968,1116,1660
7974,12338,10234,965,1006,1398,878,1262,1385
9284,15187,12114,1195,1246,1661,1042,1256,1547
9682,15267,16910,1380,1165,1394,971,1411,1625
8189,12974,11084,1894,826,1250,943,844,1163
9321,14734,12399,1075,1278,1752,935,1304,1533
9653,15678,13445,873,2363,1361,945,1154,2942
8725,13487,13923,1035,1343,1647,973,1126,1672
9028,14662,13119,1247,1313,1750,987,1169,1626
9862,13041,11183,707,836,1551,924,1245,1492
9671,12857,12113,1086,1367,1608,936,1008,1640
9481,12863,12564,1395,1398,1746,1129,1251,1561
6619,10939,9071,732,868,1204,738,735,1143
10236,14704,12613,1343,1281,1564,1024,901,1258
9564,12437,9772,730,871,1296,660,999,1348
7289,10867,9194,719,855,1190,706,830,1130
9697,15310,12612,1216,1362,1803,1006,1146,1518
7962,10746,11437,924,1075,1131,732,1297,1550
7297,10906,9980,727,890,1166,650,754,1079
6583,10729,9190,694,933,1080,704,759,1091
7585,10869,10441,838,949,1206,671,793,1122
7265,10715,9132,781,882,1154,659,740,1190
6630,10942,9070,750,799,1131,693,769,1184
6933,14607,12690,1183,1278,1634,861,795,1312
6447,10650,9140,745,858,1192,652,732,1111
6649,10572,9047,783,844,1182,660,757,1111
11203,17059,13406,952,1342,1567,738,907,1173
8500,12119,11077,865,895,1378,994,837,2404
7441,10890,9137,730,789,1110,675,825,1143
6758,10571,9038,705,835,1202,696,716,1109
8556,13262,11551,703,856,1286,989,1164,3018
11322,12970,33663,750,1298,1109,2081,873,973
7228,11186,9141,786,875,1163,671,760,1083
7388,13803,9473,793,865,1158,662,804,1096
7923,10937,9233,826,1051,1222,898,982,1215
7338,10750,11021,1087,897,1159,687,803,1067
7292,10769,9144,806,899,1197,655,806,1122
6417,10457,9595,750,840,1084,711,727,1063
7860,10722,9188,725,830,1150,685,788,1092
9620,14543,11610,1055,1189,1482,972,1169,1564
8748,14185,12718,1181,1285,1737,1044,1133,1524
9295,15181,12479,1224,1226,1617,956,1447,1847
9762,14975,12228,1231,1191,1782,943,1112,1542
11215,11235,9270,694,859,1150,652,1086,1094
9151,11766,13388,993,1121,1489,710,955,1090
6804,10778,9043,737,842,1175,690,759,1145
7269,15729,9171,747,890,1140,663,790,1157
10471,13615,11393,1212,1211,1788,1058,1295,1534
8691,12206,9252,784,881,1136,740,850,1191
6559,10708,9093,778,852,1071,696,782,1137
7042,10631,9067,744,887,1139,680,755,1109
7908,12959,12158,717,1075,1165,686,811,1151
6848,10762,9059,739,862,1183,666,763,1149
6894,10824,9104,733,968,1161,647,739,1095
8058,10570,9701,819,1178,1493,672,806,2354
6639,10556,9074,752,872,1189,706,712,1080
6564,10691,9146,724,845,1150,678,732,1101
6289,10643,9152,750,854,1172,663,764,1081
6643,10692,9129,755,864,1169,715,717,1098
7525,13883,10078,1022,1175,1576,701,870,1098
7754,10758,9184,695,875,1123,671,857,1139
9332,13949,11183,1145,1329,1673,969,1239,1490
9751,13671,12744,1161,1202,1746,994,1391,1563
6967,27566,29435,691,819,1135,707,868,1165
9726,14210,10682,888,880,1229,698,725,2265
10393,13043,11175,767,2072,1061,672,1075,1437
7686,10965,9231,760,823,1077,692,770,1124
9932,13123,11780,1129,1241,1746,985,1214,1586
7214,10845,13046,703,916,1148,651,828,1147
9162,14807,10655,1052,912,1177,730,856,1138
8786,13532,9206,786,804,1398,801,939,1125
9556,14016,12668,1213,1246,1627,795,1122,1485
8902,13855,13395,1090,1222,1618,990,1165,1587
9508,16707,12774,1383,1349,1755,905,1355,1821
7362,11058,9173,707,817,1155,662,810,1062
7719,11021,9219,751,890,1120,687,813,1102
7663,10944,9196,756,824,1120,659,744,1082
7666,11115,9178,821,858,1148,712,804,1126
7411,23751,22378,760,872,1128,722,862,1105
6795,10852,9152,705,869,1180,700,733,1067
6874,10730,9041,764,869,1183,671,886,1124
8349,11012,9104,745,781,1111,658,791,1140
9072,14773,12631,1245,1313,1664,995,1137,1520
8917,12088,10121,918,809,1139,664,805,1132
7703,11018,9353,744,834,1071,667,852,1209
8674,10626,9083,682,842,1183,678,853,1143
6550,10728,9096,712,840,1113,699,709,1088
8439,15106,13015,1210,1213,1736,975,1184,1522
9902,14540,12334,1151,1193,1656,923,1223,1657
9997,15003,13113,1166,1257,1715,1050,1168,1556
7357,10952,9174,730,849,1127,655,813,1111
7235,11028,9184,774,874,1183,653,776,1061
10208,15704,12810,1196,1304,1648,1041,1264,1528
25830,11078,9146,709,902,1240,667,846,1113
8467.96,12858.97,11372.86,919.34,1039.58,1329.74,802.14,937.29,1344.8