1.94E+06,2.75E+06,3.21E+06,1.11E+06,1.12E+06,1.08E+06,1.23E+06,1.16E+06,1.21E+06
2.21E+06,2.79E+06,2.64E+06,1.12E+06,1.16E+06,962714,1.18E+06,1.24E+06,942536
2.16E+06,2.70E+06,2.57E+06,1.22E+06,1.14E+06,975175,1.14E+06,1.15E+06,1.21E+06
2.00E+06,2.74E+06,2.67E+06,1.10E+06,1.10E+06,941958,1.12E+06,1.17E+06,1.24E+06
3.80E+06,3.23E+06,3.94E+06,1.38E+06,1.21E+06,1.19E+06,1.18E+06,1.25E+06,1.33E+06
1.95E+06,3.11E+06,3.07E+06,1.15E+06,1.31E+06,2.25E+06,2.12E+06,1.41E+06,1.33E+06
2.13E+06,2.70E+06,3.10E+06,1.10E+06,1.08E+06,1.00E+06,1.14E+06,1.09E+06,1.08E+06
2.07E+06,2.91E+06,2.85E+06,1.18E+06,1.14E+06,956294,1.24E+06,1.24E+06,969152
1.96E+06,2.57E+06,2.60E+06,1.13E+06,1.15E+06,1.09E+06,1.13E+06,1.16E+06,1.12E+06
2.00E+06,2.68E+06,2.64E+06,1.12E+06,1.11E+06,943911,1.16E+06,1.18E+06,984516
1.96E+06,2.63E+06,2.77E+06,1.10E+06,1.11E+06,1.06E+06,1.19E+06,1.16E+06,1.12E+06
1.92E+06,2.61E+06,2.72E+06,1.08E+06,1.15E+06,993329,1.11E+06,1.11E+06,959052
2.08E+06,2.65E+06,2.62E+06,1.08E+06,1.09E+06,949512,1.12E+06,1.06E+06,928880
2.03E+06,2.73E+06,2.65E+06,1.13E+06,1.13E+06,953663,1.29E+06,1.24E+06,931037
2.01E+06,2.66E+06,2.67E+06,1.18E+06,1.22E+06,1.06E+06,1.25E+06,1.20E+06,1.14E+06
1.89E+06,2.53E+06,2.55E+06,1.10E+06,1.37E+06,1.08E+06,1.20E+06,1.19E+06,1.03E+06
2.24E+06,3.22E+06,2.97E+06,1.23E+06,1.22E+06,1.23E+06,1.34E+06,1.18E+06,1.49E+06
2.27E+06,2.95E+06,3.05E+06,1.16E+06,1.17E+06,1.12E+06,1.23E+06,1.22E+06,1.16E+06
2.02E+06,3.07E+06,2.88E+06,1.11E+06,1.27E+06,1.17E+06,1.27E+06,1.21E+06,1.15E+06
2.26E+06,3.10E+06,2.95E+06,1.18E+06,1.36E+06,1.16E+06,1.33E+06,1.41E+06,1.11E+06
2.18E+06,3.04E+06,3.07E+06,1.23E+06,1.29E+06,1.20E+06,1.27E+06,1.29E+06,1.38E+06
2.17E+06,2.86E+06,2.96E+06,1.32E+06,1.29E+06,1.37E+06,1.30E+06,1.37E+06,1.61E+06
2.21E+06,3.07E+06,2.92E+06,1.27E+06,1.20E+06,1.05E+06,1.25E+06,1.11E+06,1.09E+06
2.19E+06,2.93E+06,3.04E+06,1.24E+06,1.11E+06,1.19E+06,1.36E+06,1.35E+06,1.37E+06
2.40E+06,3.13E+06,2.79E+06,1.25E+06,1.10E+06,965630,1.10E+06,1.07E+06,1.18E+06
2.25E+06,3.08E+06,2.73E+06,1.17E+06,1.11E+06,968487,1.16E+06,1.10E+06,954809
2.35E+06,2.64E+06,2.78E+06,1.16E+06,1.13E+06,1.04E+06,1.17E+06,1.10E+06,983008
2.09E+06,2.86E+06,3.31E+06,1.30E+06,1.35E+06,1.10E+06,1.32E+06,1.32E+06,1.28E+06
2.10E+06,2.80E+06,4.24E+06,1.20E+06,1.34E+06,1.32E+06,1.36E+06,1.13E+06,1.18E+06
1.99E+06,2.67E+06,2.96E+06,1.24E+06,1.22E+06,1.12E+06,1.18E+06,1.13E+06,1.26E+06
2.03E+06,2.96E+06,2.87E+06,1.17E+06,1.08E+06,1.06E+06,1.16E+06,1.06E+06,1.13E+06
2.34E+06,3.07E+06,2.77E+06,1.15E+06,1.17E+06,964049,1.24E+06,1.34E+06,1.21E+06
2.45E+06,3.28E+06,3.21E+06,1.31E+06,1.36E+06,1.05E+06,1.26E+06,1.28E+06,1.01E+06
2.85E+06,3.64E+06,3.29E+06,1.21E+06,1.27E+06,1.26E+06,1.38E+06,1.35E+06,1.43E+06
2.31E+06,3.13E+06,3.40E+06,1.34E+06,1.35E+06,1.22E+06,1.26E+06,1.43E+06,1.09E+06
2.49E+06,4.63E+06,3.83E+06,1.68E+06,1.59E+06,1.35E+06,1.52E+06,1.37E+06,1.17E+06
2.22E+06,3.34E+06,3.34E+06,1.31E+06,1.34E+06,1.26E+06,1.33E+06,1.26E+06,1.04E+06
2.50E+06,3.49E+06,3.38E+06,1.39E+06,1.75E+06,1.45E+06,1.99E+06,1.62E+06,1.51E+06
2.34E+06,2.77E+06,3.20E+06,1.30E+06,1.44E+06,1.36E+06,1.27E+06,1.38E+06,1.34E+06
2.24E+06,3.18E+06,3.24E+06,1.32E+06,1.35E+06,1.30E+06,1.32E+06,1.24E+06,1.34E+06
2.41E+06,3.64E+06,4.50E+06,1.75E+06,1.39E+06,1.31E+06,1.45E+06,1.82E+06,1.37E+06
2.62E+06,3.31E+06,3.02E+06,1.34E+06,1.48E+06,1.43E+06,1.39E+06,1.43E+06,1.64E+06
2.95E+06,3.51E+06,3.67E+06,1.32E+06,1.26E+06,1.11E+06,1.20E+06,1.14E+06,977642
2.03E+06,2.90E+06,2.81E+06,1.13E+06,1.06E+06,942605,1.15E+06,1.11E+06,936977
1.94E+06,2.94E+06,2.74E+06,1.13E+06,1.09E+06,937714,1.11E+06,1.21E+06,1.28E+06
2.18E+06,2.90E+06,2.74E+06,1.32E+06,1.20E+06,953631,1.10E+06,1.10E+06,932661
2.08E+06,2.59E+06,2.59E+06,1.18E+06,1.20E+06,1.01E+06,1.30E+06,1.25E+06,973723
1.98E+06,2.66E+06,2.71E+06,1.14E+06,1.17E+06,940258,1.13E+06,1.13E+06,964505
2.06E+06,2.65E+06,2.61E+06,1.13E+06,1.14E+06,932840,1.10E+06,1.09E+06,927041
2.02E+06,2.61E+06,2.65E+06,1.18E+06,1.19E+06,988948,1.22E+06,1.09E+06,933816
1.92E+06,2.60E+06,2.55E+06,1.17E+06,1.19E+06,992309,1.19E+06,1.07E+06,1.15E+06
1.92E+06,2.62E+06,2.70E+06,1.10E+06,1.14E+06,1.06E+06,1.13E+06,1.08E+06,1.06E+06
2.37E+06,3.25E+06,3.58E+06,1.44E+06,1.40E+06,1.17E+06,1.27E+06,1.29E+06,1.13E+06
2.37E+06,3.23E+06,3.46E+06,1.44E+06,1.33E+06,2.15E+06,2.15E+06,1.29E+06,1.18E+06
2.30E+06,3.01E+06,2.69E+06,1.17E+06,1.12E+06,1.06E+06,1.11E+06,1.13E+06,1.24E+06
2.38E+06,2.66E+06,2.70E+06,1.23E+06,1.14E+06,982220,1.14E+06,1.11E+06,1.12E+06
1.94E+06,2.56E+06,2.52E+06,1.22E+06,1.16E+06,948979,1.14E+06,1.22E+06,1.25E+06
2.01E+06,2.76E+06,2.74E+06,1.12E+06,1.08E+06,1.10E+06,1.14E+06,1.21E+06,1.18E+06
2.19E+06,2.72E+06,2.70E+06,1.14E+06,1.15E+06,1.10E+06,1.17E+06,1.20E+06,1.27E+06
2.25E+06,2.85E+06,2.74E+06,1.11E+06,1.14E+06,977988,1.16E+06,1.35E+06,985029
1.90E+06,2.67E+06,2.79E+06,1.24E+06,1.06E+06,1.14E+06,1.14E+06,1.14E+06,1.38E+06
1.96E+06,2.56E+06,2.61E+06,1.09E+06,1.11E+06,934845,1.22E+06,1.16E+06,1.15E+06
2.01E+06,2.82E+06,2.55E+06,1.15E+06,1.09E+06,1.09E+06,1.12E+06,1.09E+06,1.14E+06
1.93E+06,2.72E+06,2.98E+06,1.11E+06,1.13E+06,968474,1.22E+06,1.13E+06,996999
2.02E+06,2.81E+06,3.16E+06,1.55E+06,1.35E+06,1.29E+06,1.30E+06,1.24E+06,1.29E+06
2.20E+06,3.15E+06,3.11E+06,1.26E+06,1.29E+06,1.08E+06,1.22E+06,1.25E+06,959437
2.09E+06,2.85E+06,2.94E+06,1.25E+06,1.21E+06,1.32E+06,1.30E+06,1.31E+06,1.32E+06
2.23E+06,3.04E+06,3.11E+06,1.14E+06,1.17E+06,1.12E+06,1.28E+06,1.34E+06,1.05E+06
2.20E+06,3.05E+06,2.86E+06,1.27E+06,1.27E+06,1.11E+06,1.25E+06,1.29E+06,1.25E+06
2.19E+06,3.12E+06,2.88E+06,1.28E+06,1.25E+06,1.04E+06,1.19E+06,1.24E+06,1.08E+06
2.10E+06,3.06E+06,3.27E+06,1.36E+06,1.31E+06,1.21E+06,1.29E+06,1.21E+06,1.23E+06
2.22E+06,2.84E+06,2.98E+06,1.24E+06,1.24E+06,1.14E+06,1.27E+06,1.27E+06,1.09E+06
2.12E+06,2.87E+06,3.05E+06,1.18E+06,1.20E+06,1.06E+06,1.27E+06,1.37E+06,1.06E+06
2.11E+06,2.89E+06,3.03E+06,1.16E+06,1.27E+06,1.10E+06,1.29E+06,1.20E+06,932276
2.22E+06,2.89E+06,3.08E+06,1.19E+06,1.18E+06,1.16E+06,1.28E+06,1.21E+06,1.32E+06
2.27E+06,3.08E+06,2.82E+06,1.12E+06,1.14E+06,1.18E+06,1.25E+06,1.17E+06,1.27E+06
2.34E+06,2.90E+06,2.90E+06,1.23E+06,1.30E+06,958227,1.19E+06,1.32E+06,1.11E+06
2.15E+06,3.11E+06,2.91E+06,1.19E+06,1.25E+06,1.14E+06,1.28E+06,1.37E+06,1.10E+06
2.14E+06,3.41E+06,3.38E+06,1.30E+06,1.31E+06,1.28E+06,1.46E+06,1.45E+06,1.35E+06
2.33E+06,3.22E+06,2.99E+06,1.29E+06,1.45E+06,1.06E+06,1.41E+06,1.33E+06,1.33E+06
2.27E+06,3.56E+06,3.35E+06,1.21E+06,1.23E+06,1.18E+06,1.29E+06,1.14E+06,1.18E+06
2.42E+06,3.13E+06,2.91E+06,1.23E+06,1.23E+06,1.11E+06,1.28E+06,1.35E+06,1.26E+06
2.18E+06,2.78E+06,2.81E+06,1.34E+06,1.18E+06,1.04E+06,1.28E+06,1.22E+06,1.01E+06
2.03E+06,3.01E+06,2.99E+06,1.20E+06,1.20E+06,1.20E+06,1.22E+06,1.25E+06,1.22E+06
2.30E+06,3.07E+06,3.19E+06,1.35E+06,1.41E+06,1.09E+06,1.27E+06,1.22E+06,1.31E+06
2.05E+06,2.92E+06,2.99E+06,1.30E+06,1.25E+06,1.08E+06,1.23E+06,1.26E+06,1.09E+06
2.09E+06,2.70E+06,2.80E+06,1.19E+06,1.23E+06,955145,1.09E+06,1.16E+06,1.21E+06
2.29E+06,2.97E+06,3.29E+06,1.34E+06,1.38E+06,1.21E+06,1.39E+06,1.42E+06,1.32E+06
2.35E+06,3.27E+06,3.42E+06,1.23E+06,1.08E+06,998681,1.27E+06,1.27E+06,1.41E+06
2.11E+06,2.77E+06,2.71E+06,1.14E+06,1.08E+06,1.00E+06,1.14E+06,1.18E+06,1.07E+06
2.01E+06,2.62E+06,2.67E+06,1.22E+06,1.14E+06,958652,1.13E+06,1.09E+06,1.13E+06
2.08E+06,2.69E+06,2.76E+06,1.18E+06,1.12E+06,948911,1.17E+06,1.08E+06,1.17E+06
2.09E+06,2.92E+06,2.67E+06,1.16E+06,1.15E+06,951647,1.16E+06,1.20E+06,1.13E+06
2.07E+06,2.77E+06,2.95E+06,1.16E+06,1.09E+06,999207,1.14E+06,1.11E+06,971657
2.01E+06,2.65E+06,2.66E+06,1.11E+06,1.18E+06,1.00E+06,1.13E+06,1.09E+06,1.19E+06
1.94E+06,2.62E+06,2.88E+06,1.13E+06,1.12E+06,1.07E+06,1.24E+06,1.10E+06,1.23E+06
2.22E+06,3.00E+06,3.03E+06,1.18E+06,1.21E+06,1.09E+06,1.15E+06,1.29E+06,1.10E+06
2.15E+06,2.84E+06,2.85E+06,1.25E+06,1.23E+06,1.04E+06,1.14E+06,1.20E+06,964972
2.29E+06,2.94E+06,3.11E+06,1.18E+06,1.09E+06,1.09E+06,1.21E+06,1.23E+06,1.25E+06
2.22E+06,3.22E+06,3.06E+06,1.21E+06,1.16E+06,1.03E+06,1.29E+06,1.16E+06,1.12E+06
2.18E+06,2.94E+06,2.97E+06,1.22E+06,1.22E+06,1.11E+06,1.25E+06,1.23E+06,1.16E+06