25948,26687,10168,2283,3334,3118,1914,2906,2967
30671,8276,9778,2147,3485,3141,3074,3431,3224
31519,8015,11694,2146,3006,52068,2435,3209,3081
25765,7041,7101,2199,2996,2938,1921,3060,2913
24385,6863,6583,2090,3008,2912,2001,3120,2975
25054,7222,8845,2098,3088,2941,1980,3602,2964
50741,7091,6398,2219,2917,3047,1957,2852,2754
23010,6370,6419,2019,2882,2936,2082,3040,2730
22695,6295,8866,2164,3081,3101,1934,3096,2992
22416,6587,8931,2060,3103,3110,1944,3009,3160
23634,6564,6261,2012,3035,2884,2216,2829,2797
24299,6563,9165,1932,3109,3150,2054,2939,2948
23361,7240,6805,3336,3084,2986,1960,2935,2880
31167,8277,6827,2317,4439,7016,2719,3940,4380
22971,6696,9714,2132,3077,3027,1880,2998,3193
26694,7696,6059,2138,4633,4716,2312,3727,4308
23176,8090,9493,2066,3008,3149,1829,2975,2907
27058,6980,6491,2125,2884,3073,1934,2932,2719
22523,6574,9096,2102,3003,2974,2124,2959,3098
22889,6494,9675,2300,3125,3049,2036,3177,3051
23614,6615,6559,2272,3141,3078,2147,3030,3013
23416,6990,9046,2098,3080,3076,2097,3194,2825
30812,7770,9272,2058,4482,4768,2538,3476,4788
23193,6756,6320,2257,3059,2877,1986,3053,2760
23516,6759,9660,2225,3147,3175,2140,2908,2771
26359,6436,8939,2113,3028,3022,1901,2946,2942
23113,6979,6439,2187,3062,3005,1974,3041,3026
25905,6850,6608,2055,3155,4431,2050,3167,2962
25264,7132,9610,2138,3082,2808,1936,2994,3010
33627,15668,31938,17009,3967,4663,2809,26460,4955
31078,7434,10781,3332,3492,3327,3199,3367,3371
66406,8964,12280,2880,3985,3930,2462,3931,4097
25091,7191,11441,3377,3257,3397,2027,3152,2762
25088,8405,7660,1969,4206,3326,2043,2914,2943
24943,6857,6601,1987,3210,3116,1854,2862,2772
28280,8334,8762,2635,3481,4183,2087,3329,4211
28717,10198,7710,3394,3726,3079,3394,4679,3204
29620,11450,7043,2091,3031,3139,2069,3053,3347
24747,6995,8708,2293,3368,3032,1906,3158,2838
25846,6920,10013,2294,3235,3165,1899,3008,3676
25990,7550,6658,2166,6206,3483,1906,3025,3118
25956,6962,9776,2074,3048,3174,2030,2974,2771
31589,9369,9210,2577,3222,3116,1942,2998,2834
29036,7985,9862,2320,3054,3044,2102,3401,3607
39632,9651,9364,2625,5755,4216,2666,4243,4459
56427,9669,10271,3139,3898,3390,2498,3869,3341
31578,9218,11066,2411,3370,4414,2179,3482,4257
29391,9773,28766,2266,2969,2956,2132,3325,4580
26476,6724,9348,2350,3005,3182,2097,2946,4447
31296,9080,12666,2761,4388,4540,2587,3995,4119
29253,8734,8749,2051,3520,4253,2145,3687,4031
24787,6876,9713,2200,3190,2937,2005,2925,3069
29966,9339,10052,2803,4278,4222,2619,4227,4056
31745,8378,11982,2625,4010,4428,2746,4026,4077
30161,9041,11743,3577,3111,3512,2205,4347,2974
41481,6881,10390,2628,3123,4226,2156,2948,4010
28903,7890,8283,2469,3398,3586,1845,3420,3684
31004,9316,9273,2681,7584,4408,2511,4125,4293
60599,7333,6527,2078,2950,2863,2073,2993,3220
23794,6923,9804,2268,3037,2978,2063,2928,2869
23530,6495,9236,2300,3132,3229,1954,3062,2837
22230,6523,9150,2071,3127,3180,1655,2836,2978
30725,8131,12252,3454,3302,2992,1888,2886,3483
25413,7355,9341,2227,2976,3188,2058,3002,2925
25532,6642,9315,2114,3061,3088,1951,3107,2847
23609,6644,6478,2107,2992,3097,1832,2961,2787
29152,8383,7908,2075,4374,3472,3228,3158,3269
26908,8173,10449,2363,2915,4314,2536,4452,3156
24208,7151,8977,2211,2944,3050,1998,3020,2863
23394,6890,6819,2062,3087,2975,2003,2917,2933
30220,6877,6105,2202,3282,2902,3336,2995,3052
30915,8645,8907,2818,3885,6218,3384,3350,3966
29001,8616,8832,3534,3944,4801,2821,4625,4467
25120,6958,12166,3339,3303,3262,2029,3088,2926
23961,6997,6423,2116,2910,2988,1995,2864,2905
26526,6740,9034,2125,3201,3135,2001,2992,2896
23235,6865,6619,2139,3075,2985,1854,2852,3097
26042,7468,7804,2605,4496,3468,2359,3025,4478
24342,6752,6831,2110,3018,3090,2125,3049,3067
23329,6871,6088,2183,3030,2939,2054,2875,2984
22887,6692,8979,2146,3007,2982,2054,3225,2921
26147,8630,10510,2345,2953,3085,3165,3458,4023
29633,8396,11139,3334,3542,2978,3379,3852,3886
25391,7151,8936,2079,3176,3017,2011,3068,2864
26531,6517,9200,2124,2934,3042,2028,3065,2950
23192,6569,9623,2009,3100,3127,2002,3157,2963
23138,6923,6484,2209,2980,3114,1964,2923,3009
41958,8046,9242,2154,3323,4134,2425,3773,4043
31587,8262,8516,2068,4032,4150,2871,4490,4314
27379,7921,6900,1923,3463,3414,1846,4868,3567
24476,8077,6778,2202,3214,2948,1985,2884,3118
27533,8347,10930,3526,3501,4322,2197,3301,4200
34100,8944,14543,2806,4029,3408,2175,3077,4924
27399,8191,10466,2483,4432,3088,2261,3118,3395
25578,7323,9382,2161,2954,3045,1982,2992,2699
34760,9443,9748,4258,3762,4088,2663,4360,4420
25010,6906,9452,1987,3004,3092,1823,3256,3014
25361,9991,11380,2222,4807,3152,2283,3967,3956
23908,6657,8910,2050,3116,3051,2030,3012,3009
32034,8381,10736,2435,3339,3097,2431,4290,3070
